<svg xmlns="http://www.w3.org/2000/svg" width="174" height="40" viewBox="0 0 174 40">
    <g fill="none" fill-rule="evenodd">
        <path fill="#222E3A" fill-rule="nonzero" d="M165.184 12.442c0 2.205 1.793 4.019 4.024 4.019s4.046-1.814 4.046-4.019c0-2.215-1.815-4.029-4.046-4.029-2.23 0-4.024 1.814-4.024 4.03zm.93 0c0-1.78 1.355-3.171 3.094-3.171 1.739 0 3.095 1.39 3.095 3.171 0 1.77-1.356 3.16-3.095 3.16s-3.095-1.39-3.095-3.16zm3.75 2.14h1.149l-.875-1.673c.503-.217.842-.684.842-1.26 0-.782-.656-1.411-1.498-1.411h-1.728v4.344h1.039v-1.51h.317l.754 1.51zm-1.071-2.357v-1.14h.503c.393 0 .634.217.634.575 0 .348-.24.565-.634.565h-.503zM162.864 16.88L157.689 16.88 152.632 22.302 152.632 8.413 148.676 8.413 148.676 31.458 152.632 31.458 152.632 27.606 154.268 25.888 158.135 31.458 162.983 31.458 157.004 23.013zM147.209 16.84c-.293-.03-.578 0-.901 0-1.232 0-3.237.295-4.117 2.219v-2.22h-3.786v14.619h3.903V24.8c0-3.137 1.642-4.302 3.638-4.302h1.263V16.84zM123.364 27.2c0 2.215 1.89 4.258 4.988 4.258 2.155 0 3.542-.623 4.28-1.745l.133 1.745h3.439v-9.253c0-2.847-1.712-5.379-6.317-5.379-3.896 0-5.991 2.445-6.228 4.66l3.483.72c.118-1.237 1.063-2.302 2.775-2.302 1.653 0 2.45.834 2.45 1.841 0 .49-.266.537-1.092.652l-3.572.518c-2.42.345-4.339 1.754-4.339 4.285zm5.815 1.41c-1.27 0-1.89-.805-1.89-1.64 0-1.093.798-1.64 1.801-1.783l3.277-.489v.988c0 2.502-1.535 2.924-3.188 2.924zM112.603 22.895c.088-1.6 1.059-2.844 2.706-2.844 1.882 0 2.676 1.274 2.676 2.903v8.504h3.912v-9.185c0-3.2-1.706-5.412-5.382-5.412-1.383 0-2.971.108-3.912 1.234V8.413h-3.912v23.045h3.912v-8.563zM95.484 27.25c.178 1.578 1.66 4.208 6.048 4.208 3.824 0 5.691-2.236 5.691-4.49 0-2.028-1.452-3.69-4.328-4.253l-2.075-.423c-.8-.141-1.334-.564-1.334-1.24 0-.789.83-1.38 1.868-1.38 1.66 0 2.283 1.042 2.401 1.86l3.29-.705c-.177-1.493-1.57-4-5.72-4-3.143 0-5.455 2.056-5.455 4.535 0 1.944 1.275 3.55 4.09 4.142l1.928.422c1.126.225 1.57.733 1.57 1.353 0 .732-.622 1.38-1.926 1.38-1.72 0-2.58-1.014-2.668-2.113l-3.38.704z"/>
        <path fill="#222E3A" d="M91.513 14.24v-.06c0-1.314 1.067-2.378 2.384-2.378h.854V8.413h-1.925c-2.978 0-5.221 2.232-5.221 5.415v3.013h-2.392v3.658h2.392v10.959h3.908v-10.96h3.238v-3.657h-3.238v-2.588-.014z"/>
        <path fill="#222E3A" fill-rule="nonzero" d="M83.746 16.84c-.294-.03-.578 0-.901 0-1.233 0-3.237.295-4.118 2.219v-2.22h-3.785v14.619h3.903V24.8c0-3.137 1.642-4.302 3.638-4.302h1.263V16.84zM69.168 31.458h3.573V16.826h-3.896v8.53c0 1.689-1.052 2.488-2.78 2.488-1.816 0-2.636-1.303-2.636-2.932v-8.086h-3.895v8.886c0 3.169 1.992 5.746 5.477 5.746 1.523 0 3.249-.208 4.04-1.57l.117 1.57zM57.753 14.06c-.501-2.455-2.572-5.647-7.966-5.647-4.203 0-7.748 2.946-7.748 6.813 0 3.284 2.29 5.524 5.834 6.23l3.105.614c1.725.337 2.698 1.685 2.698 2.943 0 1.535-1.286 2.67-3.607 2.67-3.137 0-4.673-1.933-4.862-4.081l-4.015 1.043c.346 3.1 2.949 6.813 8.845 6.813 5.176 0 8.03-3.376 8.03-6.721 0-3.069-2.164-6.013-6.21-6.78l-3.106-.583c-1.63-.307-2.415-1.258-2.415-2.455 0-1.442 1.38-2.762 3.482-2.762 2.823 0 3.826 1.872 4.046 3.069l3.89-1.166z"/>
        <path fill="#178A9E" d="M24.77.004L24.633 0H15.37C9.306.326 6.757 3.838 6.073 5.709 3.416 13.649 1.763 23.935.569 31.36l-.07.431-.387 3.529c-.023.557.029 1.16.18 1.747.744 2.152 2.99 3.966 7.937 2.16v.002c4.674-2.032 10.195-4.557 15.904-7.39 3.25-1.874 8.011-6.182 8.255-11.623-.044-4.036-.18-8.268-.454-12.385l-.002.003v-.029c-.023-.338-.046-.73-.07-1.137-.048-.782-.098-1.624-.153-2.262-.08-.443-.184-.842-.312-1.204-.793-1.764-2.346-2.615-3.985-3.021-.747-.13-1.665-.153-2.641-.177zm-.352 8.215c0-.458-.372-.829-.83-.829-5.264 0-9.533 4.268-9.533 9.533v3.138c0 2.83-2.294 5.124-5.124 5.124-.471 0-.854.382-.854.854v2.595c0 .458.372.83.83.83 5.264 0 9.532-4.269 9.532-9.534v-3.137c0-2.83 2.294-5.124 5.125-5.124.471 0 .854-.383.854-.855V8.22z"/>
        <path fill="#FFF" fill-rule="nonzero" d="M23.589 7.39c.457 0 .829.371.829.83v2.594c0 .472-.383.855-.854.855-2.83 0-5.125 2.294-5.125 5.124v3.137c0 5.265-4.268 9.533-9.533 9.533-.457 0-.829-.37-.829-.829V26.04c0-.472.383-.854.854-.854 2.83 0 5.124-2.295 5.124-5.124v-3.138c0-5.265 4.269-9.533 9.534-9.533z"/>
    </g>
</svg>
